10AAssignmentCode
…
library(stringr)
library(tidyr)

Warning: package 'tidyr' was built under R version 4.5.2

library(ggplot2)

Warning: package 'ggplot2' was built under R version 4.5.2

Sentiment lexicons use in the book

# AFINN: numeric scores from -5 to 5
get_sentiments("afinn")

# A tibble: 2,477 × 2
   word       value
   <chr>      <dbl>
 1 abandon       -2
 2 abandoned     -2
 3 abandons      -2
 4 abducted      -2
 5 abduction     -2
 6 abductions    -2
 7 abhor         -3
 8 abhorred      -3
 9 abhorrent     -3
10 abhors        -3
# ℹ 2,467 more rows

# Bing: binary positive/negative
get_sentiments("bing")

# A tibble: 6,786 × 2
   word        sentiment
   <chr>       <chr>    
 1 2-faces     negative 
 2 abnormal    negative 
 3 abolish     negative 
 4 abominable  negative 
 5 abominably  negative 
 6 abominate   negative 
 7 abomination negative 
 8 abort       negative 
 9 aborted     negative 
10 aborts      negative 
# ℹ 6,776 more rows

# NRC: emotion categories (joy, anger, fear, etc.)
get_sentiments("nrc")

# A tibble: 13,872 × 2
   word        sentiment
   <chr>       <chr>    
 1 abacus      trust    
 2 abandon     fear     
 3 abandon     negative 
 4 abandon     sadness  
 5 abandoned   anger    
 6 abandoned   fear     
 7 abandoned   negative 
 8 abandoned   sadness  
 9 abandonment anger    
10 abandonment fear     
# ℹ 13,862 more rows
…
tidy_books <- austen_books() %>%
  group_by(book) %>%
  mutate(
    linenumber = row_number(),
    chapter = cumsum(str_detect(text, 
                                regex("^chapter [\\divxlc]", 
                                      ignore_case = TRUE)))
  ) %>%
  ungroup() %>%
  unnest_tokens(word, text)

tidy_books

# A tibble: 725,055 × 4
   book                linenumber chapter word       
   <fct>                    <int>   <int> <chr>      
 1 Sense & Sensibility          1       0 sense      
 2 Sense & Sensibility          1       0 and        
 3 Sense & Sensibility          1       0 sensibility
 4 Sense & Sensibility          3       0 by         
 5 Sense & Sensibility          3       0 jane       
 6 Sense & Sensibility          3       0 austen     
 7 Sense & Sensibility          5       0 1811       
 8 Sense & Sensibility         10       1 chapter    
 9 Sense & Sensibility         10       1 1          
10 Sense & Sensibility         13       1 the        
# ℹ 725,045 more rows

Sentiment Analysis

nrc_joy <- get_sentiments("nrc") %>%
  filter(sentiment == "joy")

tidy_books %>%
  filter(book == "Emma") %>%
  inner_join(nrc_joy, by = "word") %>%
  count(word, sort = TRUE)

# A tibble: 301 × 2
   word          n
   <chr>     <int>
 1 good        359
 2 friend      166
 3 hope        143
 4 happy       125
 5 love        117
 6 deal         92
 7 found        92
 8 present      89
 9 kind         82
10 happiness    76
# ℹ 291 more rows
…
Creating columns for linenumber, chapter and word with one word per row

tidy_dracula <- dracula %>%
  mutate(
    chapter = cumsum(str_detect(text, regex("^chapter", ignore_case = TRUE)))
  ) %>%
  unnest_tokens(word, text)

tidy_dracula

# A tibble: 162,536 × 3
   linenumber chapter word     
        <int>   <int> <chr>    
 1       2659       0 start    
 2       2659       0 of       
 3       2659       0 the      
 4       2659       0 project  
 5       2659       0 gutenberg
 6       2659       0 ebook    
 7       2659       0 345      
 8       2414       0 dracula  
 9       2413       0 _by_     
10       2419       0 bram     
# ℹ 162,526 more rows
…
