Project2Code
…
Yearly Precipitation Summary by Country

country_summary <- rain_tidy_data |>
  group_by(country, city) |>
  summarise(annual_total = sum(precipitation_mm), .groups = "drop") |>
  group_by(country) |>
  summarise(
    avg_annual_mm = round(mean(annual_total), 1),
    num_cities = n()
  ) |>
  arrange(desc(avg_annual_mm))

print(country_summary)

# A tibble: 22 × 3
   country       avg_annual_mm num_cities
   <chr>                 <dbl>      <int>
 1 Liberia               4624           1
 2 Sierra Leone          4433           1
 3 Guinea                3784           1
 4 Cameroon              3603.          1
 5 Gabon                 3126           1
 6 Guinea Bissau         2023.          1
 7 Ivory Coast           1848.          1
 8 Eswatini              1442.          1
 9 Congo                 1394           1
10 Nigeria               1392.          6
# ℹ 12 more rows
…
