10BAssignmentCode
…
How has gender breakdown changed over time?

gender_decade <- laureates_clean %>%
  filter(prize_status == "received",
         gender %in% c("male", "female")) %>%
  mutate(decade = floor(as.numeric(award_year) / 10) * 10) %>%
  count(decade, gender)

gender_decade

# A tibble: 25 × 3
   decade gender     n
    <dbl> <chr>  <int>
 1   1900 female     3
 2   1900 male      53
 3   1910 female     1
 4   1910 male      37
 5   1920 female     2
 6   1920 male      52
 7   1930 female     3
 8   1930 male      52
 9   1940 female     3
10   1940 male      37
# ℹ 15 more rows
…
Which country lost the most laureates to other countries?

laureates_affiliations <- laureates_clean %>%
  filter(prize_status == "received",
         !is.na(birth_country_now)) %>%
  unnest(affiliations, names_sep = "_") %>%
  filter(!is.na(affiliations_countryNow.en))
laureates_affiliations

# A tibble: 841 × 40
   id    known_name       gender birth_country birth_country_now birth_continent
   <chr> <chr>            <chr>  <chr>         <chr>             <chr>          
 1 745   A. Michael Spen… male   USA           USA               North America  
 2 102   Aage N. Bohr     male   Denmark       Denmark           Europe         
 3 779   Aaron Ciechanov… male   British Prot… Israel            Asia           
 4 259   Aaron Klug       male   Lithuania     Lithuania         Europe         
 5 114   Abdus Salam      male   India         Pakistan          Asia           
 6 114   Abdus Salam      male   India         Pakistan          Asia           
 7 982   Abhijit Banerjee male   India         India             Asia           
 8 843   Ada E. Yonath    female British Mand… Israel            Asia           
 9 866   Adam G. Riess    male   USA           USA               North America  
10 866   Adam G. Riess    male   USA           USA               North America  
# ℹ 831 more rows
# ℹ 34 more variables: birth_year <chr>, death_date <chr>, category <chr>,
#   award_year <chr>, prize_status <chr>, portion <chr>,
#   affiliations_name.en <chr>, affiliations_name.no <chr>,
#   affiliations_name.se <chr>, affiliations_nameNow.en <chr>,
#   affiliations_city.en <chr>, affiliations_city.no <chr>,
#   affiliations_city.se <chr>, affiliations_country.en <chr>, …
…
